
{
east
south
gold
enemy
}
stop
{
west
east
gold
item
}
stop
{
west
south
gold
}
stop
{
}
stop
{
gold
enemy
south
exit
}
stop
]
row
{
north
east
gold
enemy
}
stop
{
west
gold
enemy
}
stop
{
north
south
gold
}
stop
{
}
stop
{
north
south
}
stop
]
row
{
east
gold
enemy
}
stop
{
west
east
gold
enemy
}
stop
{
north
west
east
gold
enemy
}
stop
{
west
east
gold
}
stop
{
west
north
gold
enemy
}
stop
]